One Model to Rule Them All!
…
Mit der logistischen Regression werden Binäre Daten (nominale Variablen mit zwei Ausprägungen) anhand von metrischen oder dummykodierten Variablen prädiziert. Dabei gilt:

\[\begin{aligned}
y_i & \sim \operatorname{Bernoulli(p_i)} \\
\operatorname{logit}\left(p_i\right) & =X_i \beta
\end{aligned}\]
mit \(\operatorname{logit}(x)=\log (x /(1-x))\).

Datenbeispiel

Als Datengrundlage sollen hier über zehntausend Wählenrinnen dienen, die entwender beabsichtigten G. W. Bush zu wählen bush = 1 oder nicht bush = 0. Diese binäre abhängige Variable kann dann mit den unabhängigen Variablen edu, age, female etc. prädiziert werden.

data_poll_repub

# A tibble: 13,544 × 10
   org         year survey     bush state   edu   age female black weight
   <dbl+lbl>  <dbl> <dbl+lbl> <dbl> <dbl> <dbl> <dbl>  <dbl> <dbl>  <dbl>
 1 1 [cbsnyt]     1 1 [9152]      1     7     2     2      1     0   1403
 2 1 [cbsnyt]     1 1 [9152]      1    33     4     3      0     0    778
 3 1 [cbsnyt]     1 1 [9152]      0    20     2     1      1     0   1564
 4 1 [cbsnyt]     1 1 [9152]      1    31     3     2      1     0   1055
 5 1 [cbsnyt]     1 1 [9152]      1    18     3     1      1     0   1213
 6 1 [cbsnyt]     1 1 [9152]      1    31     4     2      0     0    910
 7 1 [cbsnyt]     1 1 [9152]      1    40     1     3      0     0    735
 8 1 [cbsnyt]     1 1 [9152]      1    33     4     2      1     0    410
 9 1 [cbsnyt]     1 1 [9152]      0    22     4     2      1     0    410
10 1 [cbsnyt]     1 1 [9152]      1    22     4     3      0     0    778
# ℹ 13,534 more rows
…
